-- Merging decision tree log ---
manifest
ADDED from C:\oldSerc\flutter\.pub-cache\hosted\pub.dartlang.org\connectivity-2.0.2\android\src\main\AndroidManifest.xml:1:1-4:12
INJECTED from C:\oldSerc\flutter\.pub-cache\hosted\pub.dartlang.org\connectivity-2.0.2\android\src\main\AndroidManifest.xml:1:1-4:12
INJECTED from C:\oldSerc\flutter\.pub-cache\hosted\pub.dartlang.org\connectivity-2.0.2\android\src\main\AndroidManifest.xml:1:1-4:12
	package
		ADDED from C:\oldSerc\flutter\.pub-cache\hosted\pub.dartlang.org\connectivity-2.0.2\android\src\main\AndroidManifest.xml:2:3-44
		INJECTED from C:\oldSerc\flutter\.pub-cache\hosted\pub.dartlang.org\connectivity-2.0.2\android\src\main\AndroidManifest.xml
		INJECTED from C:\oldSerc\flutter\.pub-cache\hosted\pub.dartlang.org\connectivity-2.0.2\android\src\main\AndroidManifest.xml
	xmlns:android
		ADDED from C:\oldSerc\flutter\.pub-cache\hosted\pub.dartlang.org\connectivity-2.0.2\android\src\main\AndroidManifest.xml:1:11-69
uses-permission#android.permission.ACCESS_NETWORK_STATE
ADDED from C:\oldSerc\flutter\.pub-cache\hosted\pub.dartlang.org\connectivity-2.0.2\android\src\main\AndroidManifest.xml:3:3-76
	android:name
		ADDED from C:\oldSerc\flutter\.pub-cache\hosted\pub.dartlang.org\connectivity-2.0.2\android\src\main\AndroidManifest.xml:3:20-74
uses-sdk
INJECTED from C:\oldSerc\flutter\.pub-cache\hosted\pub.dartlang.org\connectivity-2.0.2\android\src\main\AndroidManifest.xml reason: use-sdk injection requested
INJECTED from C:\oldSerc\flutter\.pub-cache\hosted\pub.dartlang.org\connectivity-2.0.2\android\src\main\AndroidManifest.xml
INJECTED from C:\oldSerc\flutter\.pub-cache\hosted\pub.dartlang.org\connectivity-2.0.2\android\src\main\AndroidManifest.xml
	android:minSdkVersion
		INJECTED from C:\oldSerc\flutter\.pub-cache\hosted\pub.dartlang.org\connectivity-2.0.2\android\src\main\AndroidManifest.xml
		ADDED from C:\oldSerc\flutter\.pub-cache\hosted\pub.dartlang.org\connectivity-2.0.2\android\src\main\AndroidManifest.xml
		INJECTED from C:\oldSerc\flutter\.pub-cache\hosted\pub.dartlang.org\connectivity-2.0.2\android\src\main\AndroidManifest.xml
