-- Merging decision tree log ---
manifest
ADDED from C:\oldSerc\flutter\.pub-cache\hosted\pub.dartlang.org\permission_handler-5.0.1+1\android\src\main\AndroidManifest.xml:1:1-3:12
INJECTED from C:\oldSerc\flutter\.pub-cache\hosted\pub.dartlang.org\permission_handler-5.0.1+1\android\src\main\AndroidManifest.xml:1:1-3:12
INJECTED from C:\oldSerc\flutter\.pub-cache\hosted\pub.dartlang.org\permission_handler-5.0.1+1\android\src\main\AndroidManifest.xml:1:1-3:12
	package
		ADDED from C:\oldSerc\flutter\.pub-cache\hosted\pub.dartlang.org\permission_handler-5.0.1+1\android\src\main\AndroidManifest.xml:2:3-43
		INJECTED from C:\oldSerc\flutter\.pub-cache\hosted\pub.dartlang.org\permission_handler-5.0.1+1\android\src\main\AndroidManifest.xml
		INJECTED from C:\oldSerc\flutter\.pub-cache\hosted\pub.dartlang.org\permission_handler-5.0.1+1\android\src\main\AndroidManifest.xml
	xmlns:android
		ADDED from C:\oldSerc\flutter\.pub-cache\hosted\pub.dartlang.org\permission_handler-5.0.1+1\android\src\main\AndroidManifest.xml:1:11-69
uses-sdk
INJECTED from C:\oldSerc\flutter\.pub-cache\hosted\pub.dartlang.org\permission_handler-5.0.1+1\android\src\main\AndroidManifest.xml reason: use-sdk injection requested
INJECTED from C:\oldSerc\flutter\.pub-cache\hosted\pub.dartlang.org\permission_handler-5.0.1+1\android\src\main\AndroidManifest.xml
INJECTED from C:\oldSerc\flutter\.pub-cache\hosted\pub.dartlang.org\permission_handler-5.0.1+1\android\src\main\AndroidManifest.xml
	android:minSdkVersion
		INJECTED from C:\oldSerc\flutter\.pub-cache\hosted\pub.dartlang.org\permission_handler-5.0.1+1\android\src\main\AndroidManifest.xml
		ADDED from C:\oldSerc\flutter\.pub-cache\hosted\pub.dartlang.org\permission_handler-5.0.1+1\android\src\main\AndroidManifest.xml
		INJECTED from C:\oldSerc\flutter\.pub-cache\hosted\pub.dartlang.org\permission_handler-5.0.1+1\android\src\main\AndroidManifest.xml
