{
  "configVersion": 2,
  "packages": [
    {
      "name": "android_intent",
      "rootUri": "file:///C:/oldSerc/flutter/.pub-cache/hosted/pub.dartlang.org/android_intent-0.3.7+7",
      "packageUri": "lib/",
      "languageVersion": "2.3"
    },
    {
      "name": "args",
      "rootUri": "file:///C:/oldSerc/flutter/.pub-cache/hosted/pub.dartlang.org/args-1.6.0",
      "packageUri": "lib/",
      "languageVersion": "2.3"
    },
    {
      "name": "async",
      "rootUri": "file:///C:/oldSerc/flutter/.pub-cache/hosted/pub.dartlang.org/async-2.5.0-nullsafety.1",
      "packageUri": "lib/",
      "languageVersion": "2.10"
    },
    {
      "name": "bloc",
      "rootUri": "file:///C:/oldSerc/flutter/.pub-cache/hosted/pub.dartlang.org/bloc-6.1.1",
      "packageUri": "lib/",
      "languageVersion": "2.6"
    },
    {
      "name": "boolean_selector",
      "rootUri": "file:///C:/oldSerc/flutter/.pub-cache/hosted/pub.dartlang.org/boolean_selector-2.1.0-nullsafety.1",
      "packageUri": "lib/",
      "languageVersion": "2.10"
    },
    {
      "name": "carousel_slider",
      "rootUri": "file:///C:/oldSerc/flutter/.pub-cache/hosted/pub.dartlang.org/carousel_slider-2.3.1",
      "packageUri": "lib/",
      "languageVersion": "2.6"
    },
    {
      "name": "characters",
      "rootUri": "file:///C:/oldSerc/flutter/.pub-cache/hosted/pub.dartlang.org/characters-1.1.0-nullsafety.3",
      "packageUri": "lib/",
      "languageVersion": "2.10"
    },
    {
      "name": "charcode",
      "rootUri": "file:///C:/oldSerc/flutter/.pub-cache/hosted/pub.dartlang.org/charcode-1.2.0-nullsafety.1",
      "packageUri": "lib/",
      "languageVersion": "2.10"
    },
    {
      "name": "clock",
      "rootUri": "file:///C:/oldSerc/flutter/.pub-cache/hosted/pub.dartlang.org/clock-1.1.0-nullsafety.1",
      "packageUri": "lib/",
      "languageVersion": "2.10"
    },
    {
      "name": "cloud_firestore",
      "rootUri": "file:///C:/oldSerc/flutter/.pub-cache/hosted/pub.dartlang.org/cloud_firestore-0.13.7",
      "packageUri": "lib/",
      "languageVersion": "2.0"
    },
    {
      "name": "cloud_firestore_platform_interface",
      "rootUri": "file:///C:/oldSerc/flutter/.pub-cache/hosted/pub.dartlang.org/cloud_firestore_platform_interface-1.1.2",
      "packageUri": "lib/",
      "languageVersion": "2.0"
    },
    {
      "name": "cloud_firestore_web",
      "rootUri": "file:///C:/oldSerc/flutter/.pub-cache/hosted/pub.dartlang.org/cloud_firestore_web-0.1.1+2",
      "packageUri": "lib/",
      "languageVersion": "2.1"
    },
    {
      "name": "collection",
      "rootUri": "file:///C:/oldSerc/flutter/.pub-cache/hosted/pub.dartlang.org/collection-1.15.0-nullsafety.3",
      "packageUri": "lib/",
      "languageVersion": "2.10"
    },
    {
      "name": "connectivity",
      "rootUri": "file:///C:/oldSerc/flutter/.pub-cache/hosted/pub.dartlang.org/connectivity-2.0.2",
      "packageUri": "lib/",
      "languageVersion": "2.1"
    },
    {
      "name": "connectivity_for_web",
      "rootUri": "file:///C:/oldSerc/flutter/.pub-cache/hosted/pub.dartlang.org/connectivity_for_web-0.3.1+4",
      "packageUri": "lib/",
      "languageVersion": "2.6"
    },
    {
      "name": "connectivity_macos",
      "rootUri": "file:///C:/oldSerc/flutter/.pub-cache/hosted/pub.dartlang.org/connectivity_macos-0.1.0+7",
      "packageUri": "lib/",
      "languageVersion": "2.1"
    },
    {
      "name": "connectivity_platform_interface",
      "rootUri": "file:///C:/oldSerc/flutter/.pub-cache/hosted/pub.dartlang.org/connectivity_platform_interface-1.0.6",
      "packageUri": "lib/",
      "languageVersion": "2.1"
    },
    {
      "name": "cupertino_icons",
      "rootUri": "file:///C:/oldSerc/flutter/.pub-cache/hosted/pub.dartlang.org/cupertino_icons-1.0.0",
      "packageUri": "lib/",
      "languageVersion": "2.0"
    },
    {
      "name": "devicelocale",
      "rootUri": "file:///C:/oldSerc/flutter/.pub-cache/hosted/pub.dartlang.org/devicelocale-0.3.3",
      "packageUri": "lib/",
      "languageVersion": "2.1"
    },
    {
      "name": "easy_localization",
      "rootUri": "file:///C:/oldSerc/flutter/.pub-cache/hosted/pub.dartlang.org/easy_localization-1.4.1",
      "packageUri": "lib/",
      "languageVersion": "2.6"
    },
    {
      "name": "equatable",
      "rootUri": "file:///C:/oldSerc/flutter/.pub-cache/hosted/pub.dartlang.org/equatable-1.2.5",
      "packageUri": "lib/",
      "languageVersion": "2.0"
    },
    {
      "name": "fake_async",
      "rootUri": "file:///C:/oldSerc/flutter/.pub-cache/hosted/pub.dartlang.org/fake_async-1.2.0-nullsafety.1",
      "packageUri": "lib/",
      "languageVersion": "2.10"
    },
    {
      "name": "ffi",
      "rootUri": "file:///C:/oldSerc/flutter/.pub-cache/hosted/pub.dartlang.org/ffi-0.1.3",
      "packageUri": "lib/",
      "languageVersion": "2.6"
    },
    {
      "name": "file",
      "rootUri": "file:///C:/oldSerc/flutter/.pub-cache/hosted/pub.dartlang.org/file-5.2.1",
      "packageUri": "lib/",
      "languageVersion": "2.2"
    },
    {
      "name": "firebase",
      "rootUri": "file:///C:/oldSerc/flutter/.pub-cache/hosted/pub.dartlang.org/firebase-7.3.2",
      "packageUri": "lib/",
      "languageVersion": "2.7"
    },
    {
      "name": "firebase_admob",
      "rootUri": "file:///C:/oldSerc/flutter/.pub-cache/hosted/pub.dartlang.org/firebase_admob-0.9.3+4",
      "packageUri": "lib/",
      "languageVersion": "2.7"
    },
    {
      "name": "firebase_auth",
      "rootUri": "file:///C:/oldSerc/flutter/.pub-cache/hosted/pub.dartlang.org/firebase_auth-0.14.0+9",
      "packageUri": "lib/",
      "languageVersion": "2.0"
    },
    {
      "name": "firebase_core",
      "rootUri": "file:///C:/oldSerc/flutter/.pub-cache/hosted/pub.dartlang.org/firebase_core-0.4.5",
      "packageUri": "lib/",
      "languageVersion": "2.0"
    },
    {
      "name": "firebase_core_platform_interface",
      "rootUri": "file:///C:/oldSerc/flutter/.pub-cache/hosted/pub.dartlang.org/firebase_core_platform_interface-1.0.4",
      "packageUri": "lib/",
      "languageVersion": "2.0"
    },
    {
      "name": "firebase_core_web",
      "rootUri": "file:///C:/oldSerc/flutter/.pub-cache/hosted/pub.dartlang.org/firebase_core_web-0.1.1+2",
      "packageUri": "lib/",
      "languageVersion": "2.0"
    },
    {
      "name": "firebase_database",
      "rootUri": "file:///C:/oldSerc/flutter/.pub-cache/hosted/pub.dartlang.org/firebase_database-3.1.6",
      "packageUri": "lib/",
      "languageVersion": "2.0"
    },
    {
      "name": "firebase_storage",
      "rootUri": "file:///C:/oldSerc/flutter/.pub-cache/hosted/pub.dartlang.org/firebase_storage-3.1.6",
      "packageUri": "lib/",
      "languageVersion": "2.0"
    },
    {
      "name": "flick_video_player",
      "rootUri": "file:///C:/oldSerc/flutter/.pub-cache/hosted/pub.dartlang.org/flick_video_player-0.1.1",
      "packageUri": "lib/",
      "languageVersion": "2.4"
    },
    {
      "name": "flutter",
      "rootUri": "file:///C:/oldSerc/flutter/packages/flutter",
      "packageUri": "lib/",
      "languageVersion": "2.10"
    },
    {
      "name": "flutter_automation",
      "rootUri": "file:///C:/oldSerc/flutter/.pub-cache/hosted/pub.dartlang.org/flutter_automation-1.4.0",
      "packageUri": "lib/",
      "languageVersion": "2.1"
    },
    {
      "name": "flutter_bloc",
      "rootUri": "file:///C:/oldSerc/flutter/.pub-cache/hosted/pub.dartlang.org/flutter_bloc-6.1.1",
      "packageUri": "lib/",
      "languageVersion": "2.6"
    },
    {
      "name": "flutter_linkify",
      "rootUri": "file:///C:/oldSerc/flutter/.pub-cache/hosted/pub.dartlang.org/flutter_linkify-4.0.2",
      "packageUri": "lib/",
      "languageVersion": "2.0"
    },
    {
      "name": "flutter_localizations",
      "rootUri": "file:///C:/oldSerc/flutter/packages/flutter_localizations",
      "packageUri": "lib/",
      "languageVersion": "2.2"
    },
    {
      "name": "flutter_plugin_android_lifecycle",
      "rootUri": "file:///C:/oldSerc/flutter/.pub-cache/hosted/pub.dartlang.org/flutter_plugin_android_lifecycle-1.0.11",
      "packageUri": "lib/",
      "languageVersion": "2.1"
    },
    {
      "name": "flutter_rating_bar",
      "rootUri": "file:///C:/oldSerc/flutter/.pub-cache/hosted/pub.dartlang.org/flutter_rating_bar-3.2.0",
      "packageUri": "lib/",
      "languageVersion": "2.5"
    },
    {
      "name": "flutter_spinkit",
      "rootUri": "file:///C:/oldSerc/flutter/.pub-cache/hosted/pub.dartlang.org/flutter_spinkit-3.1.0",
      "packageUri": "lib/",
      "languageVersion": "2.0"
    },
    {
      "name": "flutter_test",
      "rootUri": "file:///C:/oldSerc/flutter/packages/flutter_test",
      "packageUri": "lib/",
      "languageVersion": "2.2"
    },
    {
      "name": "flutter_ui_mode_manager",
      "rootUri": "file:///C:/oldSerc/flutter/.pub-cache/hosted/pub.dartlang.org/flutter_ui_mode_manager-1.0.0",
      "packageUri": "lib/",
      "languageVersion": "2.7"
    },
    {
      "name": "flutter_web_plugins",
      "rootUri": "file:///C:/oldSerc/flutter/packages/flutter_web_plugins",
      "packageUri": "lib/",
      "languageVersion": "2.0"
    },
    {
      "name": "fluttertoast",
      "rootUri": "file:///C:/oldSerc/flutter/.pub-cache/hosted/pub.dartlang.org/fluttertoast-7.1.1",
      "packageUri": "lib/",
      "languageVersion": "2.7"
    },
    {
      "name": "font_awesome_flutter",
      "rootUri": "file:///C:/oldSerc/flutter/.pub-cache/hosted/pub.dartlang.org/font_awesome_flutter-8.10.0",
      "packageUri": "lib/",
      "languageVersion": "2.0"
    },
    {
      "name": "fullscreen",
      "rootUri": "file:///C:/oldSerc/flutter/.pub-cache/hosted/pub.dartlang.org/fullscreen-1.0.1",
      "packageUri": "lib/",
      "languageVersion": "2.7"
    },
    {
      "name": "geolocator",
      "rootUri": "file:///C:/oldSerc/flutter/.pub-cache/hosted/pub.dartlang.org/geolocator-5.3.2+2",
      "packageUri": "lib/",
      "languageVersion": "2.1"
    },
    {
      "name": "google_api_availability",
      "rootUri": "file:///C:/oldSerc/flutter/.pub-cache/hosted/pub.dartlang.org/google_api_availability-2.0.4",
      "packageUri": "lib/",
      "languageVersion": "2.3"
    },
    {
      "name": "grouped_buttons",
      "rootUri": "file:///C:/oldSerc/flutter/.pub-cache/hosted/pub.dartlang.org/grouped_buttons-1.0.4",
      "packageUri": "lib/",
      "languageVersion": "2.1"
    },
    {
      "name": "http",
      "rootUri": "file:///C:/oldSerc/flutter/.pub-cache/hosted/pub.dartlang.org/http-0.12.2",
      "packageUri": "lib/",
      "languageVersion": "2.4"
    },
    {
      "name": "http_parser",
      "rootUri": "file:///C:/oldSerc/flutter/.pub-cache/hosted/pub.dartlang.org/http_parser-3.1.4",
      "packageUri": "lib/",
      "languageVersion": "2.3"
    },
    {
      "name": "image_picker",
      "rootUri": "file:///C:/oldSerc/flutter/.pub-cache/hosted/pub.dartlang.org/image_picker-0.6.7+12",
      "packageUri": "lib/",
      "languageVersion": "2.1"
    },
    {
      "name": "image_picker_platform_interface",
      "rootUri": "file:///C:/oldSerc/flutter/.pub-cache/hosted/pub.dartlang.org/image_picker_platform_interface-1.1.1",
      "packageUri": "lib/",
      "languageVersion": "2.5"
    },
    {
      "name": "intl",
      "rootUri": "file:///C:/oldSerc/flutter/.pub-cache/hosted/pub.dartlang.org/intl-0.16.1",
      "packageUri": "lib/",
      "languageVersion": "2.5"
    },
    {
      "name": "js",
      "rootUri": "file:///C:/oldSerc/flutter/.pub-cache/hosted/pub.dartlang.org/js-0.6.2",
      "packageUri": "lib/",
      "languageVersion": "2.0"
    },
    {
      "name": "linkify",
      "rootUri": "file:///C:/oldSerc/flutter/.pub-cache/hosted/pub.dartlang.org/linkify-3.0.0",
      "packageUri": "lib/",
      "languageVersion": "2.4"
    },
    {
      "name": "localize_and_translate",
      "rootUri": "file:///C:/oldSerc/flutter/.pub-cache/hosted/pub.dartlang.org/localize_and_translate-3.0.2",
      "packageUri": "lib/",
      "languageVersion": "2.1"
    },
    {
      "name": "location_permissions",
      "rootUri": "file:///C:/oldSerc/flutter/.pub-cache/hosted/pub.dartlang.org/location_permissions-3.0.0+1",
      "packageUri": "lib/",
      "languageVersion": "2.1"
    },
    {
      "name": "matcher",
      "rootUri": "file:///C:/oldSerc/flutter/.pub-cache/hosted/pub.dartlang.org/matcher-0.12.10-nullsafety.1",
      "packageUri": "lib/",
      "languageVersion": "2.10"
    },
    {
      "name": "meta",
      "rootUri": "file:///C:/oldSerc/flutter/.pub-cache/hosted/pub.dartlang.org/meta-1.3.0-nullsafety.3",
      "packageUri": "lib/",
      "languageVersion": "2.10"
    },
    {
      "name": "mime",
      "rootUri": "file:///C:/oldSerc/flutter/.pub-cache/hosted/pub.dartlang.org/mime-0.9.7",
      "packageUri": "lib/",
      "languageVersion": "2.0"
    },
    {
      "name": "nested",
      "rootUri": "file:///C:/oldSerc/flutter/.pub-cache/hosted/pub.dartlang.org/nested-0.0.4",
      "packageUri": "lib/",
      "languageVersion": "2.2"
    },
    {
      "name": "path",
      "rootUri": "file:///C:/oldSerc/flutter/.pub-cache/hosted/pub.dartlang.org/path-1.8.0-nullsafety.1",
      "packageUri": "lib/",
      "languageVersion": "2.10"
    },
    {
      "name": "path_provider",
      "rootUri": "file:///C:/oldSerc/flutter/.pub-cache/hosted/pub.dartlang.org/path_provider-1.6.22",
      "packageUri": "lib/",
      "languageVersion": "2.1"
    },
    {
      "name": "path_provider_linux",
      "rootUri": "file:///C:/oldSerc/flutter/.pub-cache/hosted/pub.dartlang.org/path_provider_linux-0.0.1+2",
      "packageUri": "lib/",
      "languageVersion": "2.1"
    },
    {
      "name": "path_provider_macos",
      "rootUri": "file:///C:/oldSerc/flutter/.pub-cache/hosted/pub.dartlang.org/path_provider_macos-0.0.4+4",
      "packageUri": "lib/",
      "languageVersion": "2.1"
    },
    {
      "name": "path_provider_platform_interface",
      "rootUri": "file:///C:/oldSerc/flutter/.pub-cache/hosted/pub.dartlang.org/path_provider_platform_interface-1.0.3",
      "packageUri": "lib/",
      "languageVersion": "2.1"
    },
    {
      "name": "path_provider_windows",
      "rootUri": "file:///C:/oldSerc/flutter/.pub-cache/hosted/pub.dartlang.org/path_provider_windows-0.0.4+1",
      "packageUri": "lib/",
      "languageVersion": "2.1"
    },
    {
      "name": "pedantic",
      "rootUri": "file:///C:/oldSerc/flutter/.pub-cache/hosted/pub.dartlang.org/pedantic-1.9.2",
      "packageUri": "lib/",
      "languageVersion": "2.1"
    },
    {
      "name": "permission_handler",
      "rootUri": "file:///C:/oldSerc/flutter/.pub-cache/hosted/pub.dartlang.org/permission_handler-5.0.1+1",
      "packageUri": "lib/",
      "languageVersion": "2.7"
    },
    {
      "name": "permission_handler_platform_interface",
      "rootUri": "file:///C:/oldSerc/flutter/.pub-cache/hosted/pub.dartlang.org/permission_handler_platform_interface-2.0.1",
      "packageUri": "lib/",
      "languageVersion": "2.6"
    },
    {
      "name": "pin_input_text_field",
      "rootUri": "file:///C:/oldSerc/flutter/.pub-cache/hosted/pub.dartlang.org/pin_input_text_field-3.1.1",
      "packageUri": "lib/",
      "languageVersion": "2.7"
    },
    {
      "name": "pinput",
      "rootUri": "file:///C:/oldSerc/flutter/.pub-cache/hosted/pub.dartlang.org/pinput-0.2.6",
      "packageUri": "lib/",
      "languageVersion": "2.8"
    },
    {
      "name": "platform",
      "rootUri": "file:///C:/oldSerc/flutter/.pub-cache/hosted/pub.dartlang.org/platform-2.2.1",
      "packageUri": "lib/",
      "languageVersion": "1.24"
    },
    {
      "name": "plugin_platform_interface",
      "rootUri": "file:///C:/oldSerc/flutter/.pub-cache/hosted/pub.dartlang.org/plugin_platform_interface-1.0.3",
      "packageUri": "lib/",
      "languageVersion": "2.1"
    },
    {
      "name": "process",
      "rootUri": "file:///C:/oldSerc/flutter/.pub-cache/hosted/pub.dartlang.org/process-3.0.13",
      "packageUri": "lib/",
      "languageVersion": "2.0"
    },
    {
      "name": "provider",
      "rootUri": "file:///C:/oldSerc/flutter/.pub-cache/hosted/pub.dartlang.org/provider-4.3.2+2",
      "packageUri": "lib/",
      "languageVersion": "2.7"
    },
    {
      "name": "quiver",
      "rootUri": "file:///C:/oldSerc/flutter/.pub-cache/hosted/pub.dartlang.org/quiver-2.1.4+1",
      "packageUri": "lib/",
      "languageVersion": "2.0"
    },
    {
      "name": "share",
      "rootUri": "file:///C:/oldSerc/flutter/.pub-cache/hosted/pub.dartlang.org/share-0.6.5+4",
      "packageUri": "lib/",
      "languageVersion": "2.1"
    },
    {
      "name": "shared_preferences",
      "rootUri": "file:///C:/oldSerc/flutter/.pub-cache/hosted/pub.dartlang.org/shared_preferences-0.5.12+4",
      "packageUri": "lib/",
      "languageVersion": "2.1"
    },
    {
      "name": "shared_preferences_linux",
      "rootUri": "file:///C:/oldSerc/flutter/.pub-cache/hosted/pub.dartlang.org/shared_preferences_linux-0.0.2+4",
      "packageUri": "lib/",
      "languageVersion": "2.1"
    },
    {
      "name": "shared_preferences_macos",
      "rootUri": "file:///C:/oldSerc/flutter/.pub-cache/hosted/pub.dartlang.org/shared_preferences_macos-0.0.1+11",
      "packageUri": "lib/",
      "languageVersion": "2.1"
    },
    {
      "name": "shared_preferences_platform_interface",
      "rootUri": "file:///C:/oldSerc/flutter/.pub-cache/hosted/pub.dartlang.org/shared_preferences_platform_interface-1.0.4",
      "packageUri": "lib/",
      "languageVersion": "2.1"
    },
    {
      "name": "shared_preferences_web",
      "rootUri": "file:///C:/oldSerc/flutter/.pub-cache/hosted/pub.dartlang.org/shared_preferences_web-0.1.2+7",
      "packageUri": "lib/",
      "languageVersion": "2.1"
    },
    {
      "name": "shared_preferences_windows",
      "rootUri": "file:///C:/oldSerc/flutter/.pub-cache/hosted/pub.dartlang.org/shared_preferences_windows-0.0.1+3",
      "packageUri": "lib/",
      "languageVersion": "2.1"
    },
    {
      "name": "simple_gesture_detector",
      "rootUri": "file:///C:/oldSerc/flutter/.pub-cache/hosted/pub.dartlang.org/simple_gesture_detector-0.1.4",
      "packageUri": "lib/",
      "languageVersion": "2.1"
    },
    {
      "name": "sky_engine",
      "rootUri": "file:///C:/oldSerc/flutter/bin/cache/pkg/sky_engine",
      "packageUri": "lib/",
      "languageVersion": "1.11"
    },
    {
      "name": "sms_autofill",
      "rootUri": "file:///C:/oldSerc/flutter/.pub-cache/hosted/pub.dartlang.org/sms_autofill-1.2.6",
      "packageUri": "lib/",
      "languageVersion": "2.0"
    },
    {
      "name": "sms_otp_auto_verify",
      "rootUri": "file:///C:/oldSerc/flutter/.pub-cache/hosted/pub.dartlang.org/sms_otp_auto_verify-1.2.2",
      "packageUri": "lib/",
      "languageVersion": "2.1"
    },
    {
      "name": "source_span",
      "rootUri": "file:///C:/oldSerc/flutter/.pub-cache/hosted/pub.dartlang.org/source_span-1.8.0-nullsafety.2",
      "packageUri": "lib/",
      "languageVersion": "2.10"
    },
    {
      "name": "stack_trace",
      "rootUri": "file:///C:/oldSerc/flutter/.pub-cache/hosted/pub.dartlang.org/stack_trace-1.10.0-nullsafety.1",
      "packageUri": "lib/",
      "languageVersion": "2.10"
    },
    {
      "name": "step_progress_indicator",
      "rootUri": "file:///C:/oldSerc/flutter/.pub-cache/hosted/pub.dartlang.org/step_progress_indicator-0.2.5+8",
      "packageUri": "lib/",
      "languageVersion": "2.1"
    },
    {
      "name": "stream_channel",
      "rootUri": "file:///C:/oldSerc/flutter/.pub-cache/hosted/pub.dartlang.org/stream_channel-2.1.0-nullsafety.1",
      "packageUri": "lib/",
      "languageVersion": "2.10"
    },
    {
      "name": "string_scanner",
      "rootUri": "file:///C:/oldSerc/flutter/.pub-cache/hosted/pub.dartlang.org/string_scanner-1.1.0-nullsafety.1",
      "packageUri": "lib/",
      "languageVersion": "2.10"
    },
    {
      "name": "subtitle_wrapper_package",
      "rootUri": "file:///C:/oldSerc/flutter/.pub-cache/hosted/pub.dartlang.org/subtitle_wrapper_package-1.0.4",
      "packageUri": "lib/",
      "languageVersion": "2.2"
    },
    {
      "name": "table_calendar",
      "rootUri": "file:///C:/oldSerc/flutter/.pub-cache/hosted/pub.dartlang.org/table_calendar-2.3.0",
      "packageUri": "lib/",
      "languageVersion": "2.7"
    },
    {
      "name": "term_glyph",
      "rootUri": "file:///C:/oldSerc/flutter/.pub-cache/hosted/pub.dartlang.org/term_glyph-1.2.0-nullsafety.1",
      "packageUri": "lib/",
      "languageVersion": "2.10"
    },
    {
      "name": "test_api",
      "rootUri": "file:///C:/oldSerc/flutter/.pub-cache/hosted/pub.dartlang.org/test_api-0.2.19-nullsafety.2",
      "packageUri": "lib/",
      "languageVersion": "2.10"
    },
    {
      "name": "toast",
      "rootUri": "file:///C:/oldSerc/flutter/.pub-cache/hosted/pub.dartlang.org/toast-0.1.5",
      "packageUri": "lib/",
      "languageVersion": "2.0"
    },
    {
      "name": "typed_data",
      "rootUri": "file:///C:/oldSerc/flutter/.pub-cache/hosted/pub.dartlang.org/typed_data-1.3.0-nullsafety.3",
      "packageUri": "lib/",
      "languageVersion": "2.10"
    },
    {
      "name": "url_launcher",
      "rootUri": "file:///C:/oldSerc/flutter/.pub-cache/hosted/pub.dartlang.org/url_launcher-5.7.10",
      "packageUri": "lib/",
      "languageVersion": "2.1"
    },
    {
      "name": "url_launcher_linux",
      "rootUri": "file:///C:/oldSerc/flutter/.pub-cache/hosted/pub.dartlang.org/url_launcher_linux-0.0.1+4",
      "packageUri": "lib/",
      "languageVersion": "2.1"
    },
    {
      "name": "url_launcher_macos",
      "rootUri": "file:///C:/oldSerc/flutter/.pub-cache/hosted/pub.dartlang.org/url_launcher_macos-0.0.1+9",
      "packageUri": "lib/",
      "languageVersion": "2.1"
    },
    {
      "name": "url_launcher_platform_interface",
      "rootUri": "file:///C:/oldSerc/flutter/.pub-cache/hosted/pub.dartlang.org/url_launcher_platform_interface-1.0.9",
      "packageUri": "lib/",
      "languageVersion": "2.1"
    },
    {
      "name": "url_launcher_web",
      "rootUri": "file:///C:/oldSerc/flutter/.pub-cache/hosted/pub.dartlang.org/url_launcher_web-0.1.5+1",
      "packageUri": "lib/",
      "languageVersion": "2.2"
    },
    {
      "name": "url_launcher_windows",
      "rootUri": "file:///C:/oldSerc/flutter/.pub-cache/hosted/pub.dartlang.org/url_launcher_windows-0.0.1+3",
      "packageUri": "lib/",
      "languageVersion": "2.1"
    },
    {
      "name": "vector_math",
      "rootUri": "file:///C:/oldSerc/flutter/.pub-cache/hosted/pub.dartlang.org/vector_math-2.1.0-nullsafety.3",
      "packageUri": "lib/",
      "languageVersion": "2.10"
    },
    {
      "name": "video_player",
      "rootUri": "file:///C:/oldSerc/flutter/.pub-cache/hosted/pub.dartlang.org/video_player-0.10.12+5",
      "packageUri": "lib/",
      "languageVersion": "2.1"
    },
    {
      "name": "video_player_controls",
      "rootUri": "file:///C:/oldSerc/flutter/.pub-cache/hosted/pub.dartlang.org/video_player_controls-2.1.9",
      "packageUri": "lib/",
      "languageVersion": "2.7"
    },
    {
      "name": "video_player_platform_interface",
      "rootUri": "file:///C:/oldSerc/flutter/.pub-cache/hosted/pub.dartlang.org/video_player_platform_interface-2.2.0",
      "packageUri": "lib/",
      "languageVersion": "2.8"
    },
    {
      "name": "video_player_web",
      "rootUri": "file:///C:/oldSerc/flutter/.pub-cache/hosted/pub.dartlang.org/video_player_web-0.1.4+1",
      "packageUri": "lib/",
      "languageVersion": "2.8"
    },
    {
      "name": "wakelock",
      "rootUri": "file:///C:/oldSerc/flutter/.pub-cache/hosted/pub.dartlang.org/wakelock-0.1.4+2",
      "packageUri": "lib/",
      "languageVersion": "2.7"
    },
    {
      "name": "win32",
      "rootUri": "file:///C:/oldSerc/flutter/.pub-cache/hosted/pub.dartlang.org/win32-1.7.3",
      "packageUri": "lib/",
      "languageVersion": "2.7"
    },
    {
      "name": "xdg_directories",
      "rootUri": "file:///C:/oldSerc/flutter/.pub-cache/hosted/pub.dartlang.org/xdg_directories-0.1.2",
      "packageUri": "lib/",
      "languageVersion": "2.3"
    },
    {
      "name": "yaml",
      "rootUri": "file:///C:/oldSerc/flutter/.pub-cache/hosted/pub.dartlang.org/yaml-2.2.1",
      "packageUri": "lib/",
      "languageVersion": "2.4"
    },
    {
      "name": "apna_beepar",
      "rootUri": "../",
      "packageUri": "lib/",
      "languageVersion": "2.7"
    }
  ],
  "generated": "2021-06-15T13:14:08.122166Z",
  "generator": "pub",
  "generatorVersion": "2.10.4"
}
